W0      @SCRATCH
W0L     _RETURN_
W0 -W3  @SI64TOF48.P1
W0 -W1  @READ_ROM_MEMORY.P2
W0 -W2  @DIVFF48.P3
W0 -W3  @MULFF64.P4
W0 -W1  @MULFF.P5
W0 -W1  @DIV3232B.P6
W0 -W3  @SI64TOF64.P7
W0 -W1  @PRINTFD32_421.P8
W0 -W3  @DIVFF64.P9
W0 -W2  @MULFF48.P10
W0 -W1  @ADDFF.P11
W0 -W3  @ADDFF64.P12
W0 -W2  @MULS4848.P13
W0 -W1  @DIVS3232A.P14
W0 -W2  @DIVS4848.P15
W0      @delay_us1.P16
W0 -W1  @MULS3232.P17
W0 -W2  @ADDFF48.P18
W0L     @SPRINTF.P19
W0      @SITOF.P20
W0 -W1  @MUL3232.P21
W0      @delay_ms1.P22
W0 -W1  @DIVFF.P23
W0 -W3  @MULS6464.P24
W0 -W3  @DIVS6464.P25
W1      @SCRATCH
W1      @READ_PACKED_MEMORY.P1
W1      @WRITE_PACKED_MEMORY.P2
W2 -W3  @MUL3232.P1
W2 -W3  @DIV3232B.P2
W2      @READ_PACKED_MEMORY.P3
W2 -W3  @MULS3232.P4
W2 -W3  @DIVS3232A.P5
W2 -W3  @MULFF.P6
W2      @WRITE_PACKED_MEMORY.P7
W2      @READ_ROM_MEMORY.P8
W2 -W3  @ADDFF.P9
W2 -W3  @DIVFF.P10
W3      @READ_ROM_MEMORY.P1
W3 -W5  @DIVS4848.P2
W3 -W5  @MULS4848.P3
W3      @READ_PACKED_MEMORY.P4
W3 -W5  @MULFF48.P5
W3 -W5  @ADDFF48.P6
W3      @WRITE_PACKED_MEMORY.P7
W3 -W5  @DIVFF48.P8
W4 -W7  @DIVFF64.P1
W4 -W7  @MULS6464.P2
W4      @PRINTFD32_421.P3
W4 -W7  @ADDFF64.P4
W4 -W7  @MULFF64.P5
W4 -W7  @DIVS6464.P6
800-801 strtok.save
802-805 _Randseed
806-809 value
80A-80D duty
80E-80F interrupt0
810-811 interrupt1
812-81B clear
81C-83B lcd_txt
83C-83D @sprintf_string
83E-841 write_lcd.value
83E-83F clear_lcd.lcd_txt_length
842-843 write_lcd.lcd_txt_length
848-849 strlen.s
848     lcd_write_at.line
849     lcd_write_at.char_pos
84A-84B strlen.sc
84A     lcd_write_at.str_length
84B     lcd_write_at.n_char_wrt
84C-84D lcd_write_at.str_pointer
84E     lcd_write_at.i
858     lcd_write_char_at.line
859     lcd_write_char_at.char_pos
85A     lcd_write_char_at.char_to_write
85B     lcd_write_char_at.char_address
F80-FFF Stack

ROM Allocation:
000196  @DIV3232B
0002FE  strlen
000150  @delay_ms1
0003CE  write_lcd
000188  @SPRINTF
0001DA  @PRINTFD32_421
0003FC  clear_lcd
00041C  MAIN
000100  INT_EXT_1
000128  INT_EXT_0
000160  lcd_init
000318  lcd_write_char_at
000374  lcd_write_at
00041C  @cinit1
00042C  @cinit2
0136  StrtoulGO
0136  StrtolGO

Project Directory:
    C:\Users\athmanal\Desktop\lab2_demo_code\

Project Files:
    LAB2.c                                                  [30-Dec-99 00:00  CRC=00000000]
    lab2_mytemplate.c (link)                                [28-Mar-15 20:36  CRC=44641567]
    project.h (link)                                        [25-Jan-10 09:54  CRC=D872A938]
    30F4011.h (link)                                        [28-Mar-15 19:51  CRC=AC8A42A8]
    stdlib.h (link)                                         [08-Jun-11 14:39  CRC=0B6669CF]
    stddef.h (link)                                         [16-Jul-10 09:27  CRC=897CEC6C]
    string.h (link)                                         [14-Jul-11 10:13  CRC=23EDEC8F]
    ctype.h (link)                                          [03-Jan-08 13:55  CRC=2D1F019F]
    lcd_utils.h (link)                                      [25-Jan-10 12:08  CRC=4B82E168]
    stdio.h (link)                                          [31-Jul-07 13:24  CRC=4E4534F4]
    lcd_utils.c (link)                                      [26-Jan-10 15:36  CRC=865EBC38]

Source signature=55D6D47C

Units:
    C:\Users\athmanal\Desktop\lab2_demo_code\lab2_mytemplate.o
    C:\Users\athmanal\Desktop\lab2_demo_code\lcd_utils.o

Compiler Settings:
    Processor:      DSPIC30F4011
    Pointer Size:   16
    ADC Range:      0-1023
    Opt Level:      9
    Short,Int,Long: SIGNED: 8,16,32
    Float,Double:   32,64

Output Files:
    Errors:      LAB2.err
    Ext Symbols: LAB2.esym
    INHX8:       LAB2.hex
    Symbols:     LAB2.sym
    List:        LAB2.lst
    Debug/COFF:  LAB2.cof
    Project:     LAB2.PJT
    Call Tree:   LAB2.tre
    Statistics:  LAB2.STA
