W0      @SCRATCH
W0L     _RETURN_
W0 -W2  @MULS4848.P1
W0 -W1  @READ_ROM_MEMORY.P2
W0 -W3  @ADDFF64.P3
W0 -W2  @DIVS4848.P4
W0 -W1  @DIVS3232A.P5
W0 -W1  @DIV3232B.P6
W0 -W3  @MULFF64.P7
W0      @SITOF.P8
W0 -W3  @SI64TOF64.P9
W0 -W1  @ADDFF.P10
W0 -W3  @DIVFF64.P11
W0 -W2  @MULFF48.P12
W0 -W1  @DIVFF.P13
W0 -W2  @ADDFF48.P14
W0 -W3  @SI64TOF48.P15
W0 -W3  @MULS6464.P16
W0 -W2  @DIVFF48.P17
W0 -W1  @MULS3232.P18
W0 -W3  @DIVS6464.P19
W0      @delay_us1.P20
W0 -W1  @MUL3232.P21
W0L     @SPRINTF.P22
W0 -W1  @MULFF.P23
W0      @PRINTFD16_425.P24
W0      @delay_ms1.P25
W0      @PRINTFD16_9600_5757_5758.P26
W1      @SCRATCH
W1      @READ_PACKED_MEMORY.P1
W1      @WRITE_PACKED_MEMORY.P2
W2      @WRITE_PACKED_MEMORY.P1
W2 -W3  @MULS3232.P2
W2      @READ_PACKED_MEMORY.P3
W2 -W3  @MULFF.P4
W2 -W3  @DIVFF.P5
W2 -W3  @DIVS3232A.P6
W2 -W3  @ADDFF.P7
W2      @READ_ROM_MEMORY.P8
W2 -W3  @DIV3232B.P9
W2 -W3  @MUL3232.P10
W3 -W5  @MULS4848.P1
W3      @READ_PACKED_MEMORY.P2
W3      @READ_ROM_MEMORY.P3
W3 -W5  @DIVS4848.P4
W3 -W5  @MULFF48.P5
W3 -W5  @ADDFF48.P6
W3      @WRITE_PACKED_MEMORY.P7
W3 -W5  @DIVFF48.P8
W4      @PRINTFD16_425.P1
W4 -W7  @MULFF64.P2
W4 -W7  @DIVFF64.P3
W4 -W7  @DIVS6464.P4
W4      @PRINTFD16_9600_5757_5758.P5
W4 -W7  @MULS6464.P6
W4 -W7  @ADDFF64.P7
85A-85B strtok.save
85C-85F _Randseed
860-861 @sprintf_string
862-881 MAIN.lcd_txt
882-883 MAIN.duty
884-885 MAIN.value
886-887 MAIN.qei_value
888     MAIN.char_length
88A     lcd_write_at.line
88A-88B strlen.s
88B     lcd_write_at.char_pos
88C     lcd_write_at.str_length
88C-88D strlen.sc
88D     lcd_write_at.n_char_wrt
88E-88F lcd_write_at.str_pointer
890     lcd_write_at.i
89A     lcd_write_char_at.line
89B     lcd_write_char_at.char_pos
89C     lcd_write_char_at.char_to_write
89D     lcd_write_char_at.char_address
F80-FFF Stack

ROM Allocation:
035A  strlen
0116  @delay_ms1
0126  lcd_init
037C  lcd_write_char_at
03D8  lcd_write_at
042C  MAIN
014C  @PRINTFD16_9600_5757_5758
0100  @const432
0246  @SPRINTF
0254  @PRINTFD16_425
042C  @cinit1
043C  @cinit2
0136  StrtoulGO
0136  StrtolGO


User Memory space: 

User Memory space: 

User Memory space: 

User Memory space: 

User Memory space: 

User Memory space: 

Project Directory:
    C:\Users\474\Downloads\lab2_demo_code\

Project Files:
    motor.c                                                 [30-Dec-99 00:00  CRC=00000000]
    lcd_utils.c (link)                                      [26-Jan-10 15:36  CRC=865EBC38]
    lcd_utils.h (link)                                      [25-Jan-10 12:08  CRC=4B82E168]
    project.h (link)                                        [25-Jan-10 09:54  CRC=D872A938]
    30F4011.h (link)                                        [01-Dec-11 14:35  CRC=647DBC7C]
    stdlib.h (link)                                         [08-Jun-11 14:39  CRC=0B6669CF]
    stddef.h (link)                                         [16-Jul-10 09:27  CRC=897CEC6C]
    string.h (link)                                         [14-Jul-11 10:13  CRC=23EDEC8F]
    ctype.h (link)                                          [03-Jan-08 13:55  CRC=2D1F019F]
    stdio.h (link)                                          [31-Jul-07 13:24  CRC=4E4534F4]

Source signature=914CB1A5

Units:
    C:\Users\474\Downloads\lab2_demo_code\lcd_utils.o
    C:\Users\474\Downloads\lab2_demo_code\motor.o

Compiler Settings:
    Processor:      DSPIC30F4011
    Pointer Size:   16
    ADC Range:      0-65535
    Opt Level:      9
    Short,Int,Long: SIGNED: 8,16,32
    Float,Double:   32,64
    ICD Provisions: Yes
    Predefined symbols:
       #define __dsPIC30F4011__ TRUE

Output Files:
    Errors:      motor.err
    Ext Symbols: motor.esym
    INHX8:       motor.hex
    Symbols:     motor.sym
    List:        motor.lst
    Debug/COFF:  motor.cof
    Project:     motor.PJT
    Call Tree:   motor.tre
    Statistics:  motor.STA
