W0      @SCRATCH
W0L     _RETURN_
W0 -W2  @DIVS4848.P1
W0 -W1  @READ_ROM_MEMORY.P2
W0 -W3  @MULFF64.P3
W0 -W1  @MULFF.P4
W0      @PRINTFD16_420.P5
W0 -W1  @DIV3232B.P6
W0      @SITOF.P7
W0 -W3  @DIVFF64.P8
W0 -W2  @MULFF48.P9
W0 -W1  @ADDFF.P10
W0 -W3  @ADDFF64.P11
W0 -W3  @SI64TOF48.P12
W0 -W1  @DIVS3232A.P13
W0 -W2  @DIVFF48.P14
W0      @delay_us1.P15
W0 -W1  @MULS3232.P16
W0 -W2  @ADDFF48.P17
W0 -W3  @SI64TOF64.P18
W0 -W1  @MUL3232.P19
W0      @delay_ms1.P20
W0 -W2  @MULS4848.P21
W0      @PRINTFD16_9600_5757_5758.P22
W0 -W1  @DIVFF.P23
W0 -W3  @MULS6464.P24
W0 -W3  @DIVS6464.P25
W0L     @SPRINTF.P26
W1      @SCRATCH
W1      @READ_PACKED_MEMORY.P1
W1      @WRITE_PACKED_MEMORY.P2
W2      @READ_PACKED_MEMORY.P1
W2 -W3  @DIVFF.P2
W2 -W3  @MUL3232.P3
W2 -W3  @ADDFF.P4
W2 -W3  @MULFF.P5
W2      @WRITE_PACKED_MEMORY.P6
W2 -W3  @DIV3232B.P7
W2 -W3  @MULS3232.P8
W2      @READ_ROM_MEMORY.P9
W2 -W3  @DIVS3232A.P10
W3      @READ_ROM_MEMORY.P1
W3 -W5  @MULS4848.P2
W3      @WRITE_PACKED_MEMORY.P3
W3 -W5  @DIVS4848.P4
W3 -W5  @DIVFF48.P5
W3 -W5  @ADDFF48.P6
W3 -W5  @MULFF48.P7
W3      @READ_PACKED_MEMORY.P8
W4      @PRINTFD16_420.P1
W4      @PRINTFD16_9600_5757_5758.P2
W4 -W7  @DIVFF64.P3
W4 -W7  @ADDFF64.P4
W4 -W7  @MULS6464.P5
W4 -W7  @DIVS6464.P6
W4 -W7  @MULFF64.P7
800-801 strtok.save
802-805 _Randseed
806-807 input0
808-809 input1
80A-80B input2
80C-80D value
80E-82D lcd_txt
82E-82F @sprintf_string
830-831 write_lcd.value
832-833 write_lcd.lcd_txt_length
836-837 strlen.s
836     lcd_write_at.line
837     lcd_write_at.char_pos
838-839 strlen.sc
838     lcd_write_at.str_length
839     lcd_write_at.n_char_wrt
83A-83B lcd_write_at.str_pointer
83C     lcd_write_at.i
846     lcd_write_char_at.line
847     lcd_write_char_at.char_pos
848     lcd_write_char_at.char_to_write
849     lcd_write_char_at.char_address
F80-FFF Stack

ROM Allocation:
000284  strlen
000138  @delay_ms1
000354  write_lcd
000170  @SPRINTF
00017E  @PRINTFD16_420
000476  MAIN
000380  @PRINTFD16_9600_5757_5758
000100  INT_EXT
00011C  timer3
000148  lcd_init
00029E  lcd_write_char_at
0002FA  lcd_write_at
000476  @cinit1
00048A  @cinit2
0136  StrtoulGO
0136  StrtolGO

Project Directory:
    C:\Users\athmanal\Desktop\18474 Labs\18474 Labs\

Project Files:
    question2.c                                             [30-Dec-99 00:00  CRC=00000000]
    lab1_template.c (link)                                  [23-Mar-15 17:19  CRC=31BE704E]
    project.h (link)                                        [23-Mar-15 17:07  CRC=D872A938]
    30F4011.h (link)                                        [23-Mar-15 17:07  CRC=AC8A42A8]
    stdlib.h (link)                                         [23-Mar-15 17:07  CRC=0B6669CF]
    stddef.h (link)                                         [23-Mar-15 17:07  CRC=897CEC6C]
    string.h (link)                                         [23-Mar-15 17:07  CRC=23EDEC8F]
    ctype.h (link)                                          [23-Mar-15 17:07  CRC=2D1F019F]
    lcd_utils.h (link)                                      [23-Mar-15 17:07  CRC=4B82E168]
    stdio.h (link)                                          [23-Mar-15 17:07  CRC=4E4534F4]
    lcd_utils.c (link)                                      [23-Mar-15 17:07  CRC=865EBC38]

Source signature=43312F63

Units:
    C:\Users\athmanal\Desktop\18474 Labs\18474 Labs\lab1_template.o
    C:\Users\athmanal\Desktop\18474 Labs\18474 Labs\lcd_utils.o

Compiler Settings:
    Processor:      DSPIC30F4011
    Pointer Size:   16
    ADC Range:      0-1023
    Opt Level:      9
    Short,Int,Long: SIGNED: 8,16,32
    Float,Double:   32,64

Output Files:
    Errors:      question2.err
    Ext Symbols: question2.esym
    INHX8:       question2.hex
    Symbols:     question2.sym
    List:        question2.lst
    Debug/COFF:  question2.cof
    Project:     question2.PJT
    Call Tree:   question2.tre
    Statistics:  question2.STA
